{
  "repository": {
    "full_name": "full name"
  },
  "push": {
    "changes": [
      {
        "commits": [
          { "hash": "1 one" },
          { "hash": "1 two" },
          { "hash": "1 three" }]
      },

      {
        "commits": [
          { "hash": "2 one" },
          { "hash": "2 two" },
          { "hash": "2 three" }]
      }
    ]
  }
}
